<?xml version="1.0" encoding="utf-8"?>
<!-- Generated by IcoMoon.io -->
<!DOCTYPE svg PUBLIC "-//W3C//DTD SVG 1.1//EN" "http://www.w3.org/Graphics/SVG/1.1/DTD/svg11.dtd">
<svg version="1.1" xmlns="http://www.w3.org/2000/svg" xmlns:xlink="http://www.w3.org/1999/xlink" width="32" height="32" viewBox="0 0 32 32">
<path fill="#000000" d="M24 6.438v1.563h4v2h-6v-4.563l4-1.875v-1.563h-4v-2h6v4.563zM21.125 8h-4.25l-5.875 5.875-5.875-5.875h-4.25l8 8-8 8h4.25l5.875-5.875 5.875 5.875h4.25l-8-8z"></path>
</svg>
