<?xml version="1.0" encoding="utf-8"?>
<!-- Generated by IcoMoon.io -->
<!DOCTYPE svg PUBLIC "-//W3C//DTD SVG 1.1//EN" "http://www.w3.org/Graphics/SVG/1.1/DTD/svg11.dtd">
<svg version="1.1" xmlns="http://www.w3.org/2000/svg" xmlns:xlink="http://www.w3.org/1999/xlink" width="24" height="24" viewBox="0 0 24 24">
<path fill="#000000" d="M20.016 9.984v-6h-16.031v6h16.031zM20.016 15v-2.016h-16.031v2.016h16.031zM20.016 2.016q0.844 0 1.406 0.563t0.563 1.406v11.016q0 0.844-0.563 1.43t-1.406 0.586h-4.031v4.969l-3.984-1.969-3.984 1.969v-4.969h-4.031q-0.844 0-1.406-0.586t-0.563-1.43v-11.016q0-0.844 0.563-1.406t1.406-0.563h16.031z"></path>
</svg>
