<?xml version="1.0" encoding="utf-8"?>
<!-- Generated by IcoMoon.io -->
<!DOCTYPE svg PUBLIC "-//W3C//DTD SVG 1.1//EN" "http://www.w3.org/Graphics/SVG/1.1/DTD/svg11.dtd">
<svg version="1.1" xmlns="http://www.w3.org/2000/svg" xmlns:xlink="http://www.w3.org/1999/xlink" width="24" height="24" viewBox="0 0 24 24">
<path fill="#000000" d="M9.984 14.016q0.797 0 1.406-0.609t0.609-1.406-0.609-1.406-1.406-0.609-1.383 0.609-0.586 1.406 0.586 1.406 1.383 0.609zM9.984 3.984q3.328 0 5.672 2.367t2.344 5.648-2.344 5.648-5.672 2.367q-3.281 0-5.625-2.344t-2.344-5.672 2.344-5.672 5.625-2.344zM20.016 6.984h1.969v5.016h-1.969v-5.016zM20.016 15.984v-1.969h1.969v1.969h-1.969z"></path>
</svg>
