<?xml version="1.0" encoding="utf-8"?>
<!-- Generated by IcoMoon.io -->
<!DOCTYPE svg PUBLIC "-//W3C//DTD SVG 1.1//EN" "http://www.w3.org/Graphics/SVG/1.1/DTD/svg11.dtd">
<svg version="1.1" xmlns="http://www.w3.org/2000/svg" xmlns:xlink="http://www.w3.org/1999/xlink" width="24" height="24" viewBox="0 0 24 24">
<path fill="#000000" d="M17.016 9.984l-1.547 2.672-8.484-8.484v-2.156h10.031l-4.031 7.969h4.031zM3.281 3l15.703 15.75-1.266 1.266-4.125-4.172-3.609 6.141v-9h-3v-3.703l-4.969-5.016z"></path>
</svg>
