<?xml version="1.0" encoding="utf-8"?>
<!-- Generated by IcoMoon.io -->
<!DOCTYPE svg PUBLIC "-//W3C//DTD SVG 1.1//EN" "http://www.w3.org/Graphics/SVG/1.1/DTD/svg11.dtd">
<svg version="1.1" xmlns="http://www.w3.org/2000/svg" xmlns:xlink="http://www.w3.org/1999/xlink" width="24" height="24" viewBox="0 0 24 24">
<path fill="#000000" d="M14.016 14.438q-3.844-1.078-9.656-2.578l-1.594-0.469v-5.156l1.453 0.375 0.938 2.344 4.969 1.313v-8.25l1.922 0.516 2.766 9 5.297 1.406q0.609 0.188 0.914 0.727t0.164 1.148q-0.188 0.609-0.703 0.891t-1.125 0.141zM2.484 18.984h19.031v2.016h-19.031v-2.016z"></path>
</svg>
