<?xml version="1.0" encoding="utf-8"?>
<!-- Generated by IcoMoon.io -->
<!DOCTYPE svg PUBLIC "-//W3C//DTD SVG 1.1//EN" "http://www.w3.org/Graphics/SVG/1.1/DTD/svg11.dtd">
<svg version="1.1" xmlns="http://www.w3.org/2000/svg" xmlns:xlink="http://www.w3.org/1999/xlink" width="24" height="24" viewBox="0 0 24 24">
<path fill="#000000" d="M12 15q0.797 0 1.406-0.609t0.609-1.406-0.609-1.383-1.406-0.586-1.406 0.586-0.609 1.383 0.609 1.406 1.406 0.609zM6.984 6.984q0 0.797 0.609 1.406t1.406 0.609 1.406-0.609 0.609-1.406-0.609-1.383-1.406-0.586-1.406 0.586-0.609 1.383zM12 2.016q5.391 0 9 3.984l-9 15.984-9-15.984q3.609-3.984 9-3.984z"></path>
</svg>
