<?xml version="1.0" encoding="utf-8"?>
<!-- Generated by IcoMoon.io -->
<!DOCTYPE svg PUBLIC "-//W3C//DTD SVG 1.1//EN" "http://www.w3.org/Graphics/SVG/1.1/DTD/svg11.dtd">
<svg version="1.1" xmlns="http://www.w3.org/2000/svg" xmlns:xlink="http://www.w3.org/1999/xlink" width="24" height="24" viewBox="0 0 24 24">
<path fill="#000000" d="M12 6q4.547 0 7.781 3.234t3.234 7.781h-2.016q0-3.703-2.625-6.352t-6.375-2.648-6.375 2.648-2.625 6.352h-2.016q0-4.547 3.234-7.781t7.781-3.234zM12 9.984q2.859 0 4.922 2.063t2.063 4.969h-1.969q0-2.063-1.477-3.539t-3.539-1.477-3.539 1.477-1.477 3.539h-1.969q0-2.906 2.063-4.969t4.922-2.063z"></path>
</svg>
