<?xml version="1.0" encoding="utf-8"?>
<!-- Generated by IcoMoon.io -->
<!DOCTYPE svg PUBLIC "-//W3C//DTD SVG 1.1//EN" "http://www.w3.org/Graphics/SVG/1.1/DTD/svg11.dtd">
<svg version="1.1" xmlns="http://www.w3.org/2000/svg" xmlns:xlink="http://www.w3.org/1999/xlink" width="24" height="24" viewBox="0 0 24 24">
<path fill="#000000" d="M17.813 5.156q3.188 2.719 3.188 6.844 0 3.75-2.625 6.375t-6.375 2.625-6.375-2.625-2.625-6.375q0-4.125 3.188-6.844l1.406 1.406q-2.578 2.109-2.578 5.438 0 2.906 2.039 4.945t4.945 2.039 4.945-2.039 2.039-4.945q0-3.328-2.578-5.391zM12.984 3v9.984h-1.969v-9.984h1.969z"></path>
</svg>
