<?xml version="1.0" encoding="utf-8"?>
<!-- Generated by IcoMoon.io -->
<!DOCTYPE svg PUBLIC "-//W3C//DTD SVG 1.1//EN" "http://www.w3.org/Graphics/SVG/1.1/DTD/svg11.dtd">
<svg version="1.1" xmlns="http://www.w3.org/2000/svg" xmlns:xlink="http://www.w3.org/1999/xlink" width="24" height="24" viewBox="0 0 24 24">
<path fill="#000000" d="M17.766 5.484l5.438 6.516-5.438 6.516-1.547-1.266 4.359-5.25-4.359-5.25zM11.016 12.984v-1.969h1.969v1.969h-1.969zM17.016 11.016v1.969h-2.016v-1.969h2.016zM6.984 12.984v-1.969h2.016v1.969h-2.016zM7.781 6.75l-4.359 5.25 4.359 5.25-1.547 1.266-5.438-6.516 5.438-6.516z"></path>
</svg>
